…
my_summarise <- function(.data, ...) {
  .data %>%
    group_by(...) %>%
    summarise(mass = mean(mass, na.rm = TRUE), height = mean(height, na.rm = TRUE))
}

starwars %>% my_summarise(homeworld)
#> # A tibble: 49 x 3
#>   homeworld    mass height
#>   <chr>       <dbl>  <dbl>
#> 1 Alderaan       64   176.
#> 2 Aleen Minor    15    79 
#> 3 Bespin         79   175 
#> 4 Bestine IV    110   180 
#> # … with 45 more rows
starwars %>% my_summarise(sex, gender)
#> `summarise()` has grouped output by 'sex'. You can override using the `.groups` argument.
#> # A tibble: 6 x 4
#> # Groups:   sex [5]
#>   sex            gender      mass height
#>   <chr>          <chr>      <dbl>  <dbl>
#> 1 female         feminine    54.7   169.
#> 2 hermaphroditic masculine 1358     175 
#> 3 male           masculine   81.0   179.
#> 4 none           feminine   NaN      96 
#> # … with 2 more rows
When you use ... in this way, make sure that any other arguments start with . to reduce the chances of argument clashes; see https://design.tidyverse.org/dots-prefix.html for more details.

Transforming user-supplied variables
If you want the user to provide a set of data-variables that are then transformed, use across():

my_summarise <- function(data, summary_vars) {
  data %>%
    summarise(across({{ summary_vars }}, ~ mean(., na.rm = TRUE)))
}
starwars %>% 
  group_by(species) %>% 
  my_summarise(c(mass, height))
#> # A tibble: 38 x 3
#>   species   mass height
#>   <chr>    <dbl>  <dbl>
#> 1 Aleena      15     79
#> 2 Besalisk   102    198
#> 3 Cerean      82    198
#> 4 Chagrian   NaN    196
#> # … with 34 more rows
…
